{
    "mongodb": {
        "local": {
            "url": "",
            "username": "",
            "password": "",
            "host": "",
            "port": "",
            "database": ""
        },
        "development": {
            "username": "skandha",
            "password": "skandha%40123",
            "host": "13.235.165.200",
            "port": "27017",
            "database": "skandhaChat"
        },
        "production": {}
    }
}